…
## Basic idea

A common and intuitive approach to text is <span class="emph">sentiment analysis</span>.  In a grand sense we are interested in the emotional content of some text, e.g. posts on Facebook, tweets, or movie reviews.  Most of the time, this is obvious when one reads it, but if you have hundreds of thousands or millions of strings to analyze, you'd like to be able to do so efficiently.

We will use the <span class="pack">tidytext</span> package for our demonstration.  It comes with a lexicon of positive and negative words that is actually a combination of multiple sources, one of which provides numeric ratings, while the others suggest different classes of sentiment.



```r
library(tidytext)
sentiments %>% slice(sample(1:nrow(sentiments)))
```

```
# A tibble: 27,314 x 4
                word sentiment  lexicon score
               <chr>     <chr>    <chr> <int>
 1     decomposition  negative      nrc    NA
 2         imaculate  positive     bing    NA
 3         greatness  positive     bing    NA
 4         impatient  negative     bing    NA
 5     contradicting  negative loughran    NA
 6 irrecoverableness  negative     bing    NA
 7         advisable     trust      nrc    NA
 8       humiliation   disgust      nrc    NA
 9          obscures  negative     bing    NA
10        affliction  negative     bing    NA
# ... with 27,304 more rows
```
…
### The first thing the baby did wrong

We demonstrate sentiment analysis with the text *The first thing the baby did wrong*, which is a very popular brief guide to parenting written by world renown psychologist [Donald Barthelme][Donald Barthelme] who, in his spare time, also wrote postmodern literature.  This particular text talks about an issue with the baby, whose name is Born Dancin', who likes to tear pages out of books. Attempts are made by her parents to rectify the situation, without much success, but things are finally resolved at the end.  The ultimate goal will be to see how sentiment in the text evolves over time.

How do we start? Let's look at the <span class="objclass">sentiments</span> data set in the <span class="pack">tidytext</span> package.



```r
library(tidytext)
sentiments %>% slice(sample(1:nrow(sentiments)))
```

```
# A tibble: 27,314 x 4
             word sentiment lexicon score
            <chr>     <chr>   <chr> <int>
 1        blunder   sadness     nrc    NA
 2       solidity  positive     nrc    NA
 3       mortuary      fear     nrc    NA
 4       absorbed  positive     nrc    NA
 5     successful       joy     nrc    NA
 6          virus  negative     nrc    NA
 7   exorbitantly  negative    bing    NA
 8 discombobulate  negative    bing    NA
 9           wail  negative     nrc    NA
10 intimidatingly  negative    bing    NA
# ... with 27,304 more rows
```

The <span class="objclass">bing</span> lexicon is just *positive* or *negative*. The AFINN is numerical, with ratings -5:5 that are in the <span class="objclass">score</span> column. The others get more imaginative, but also more problematic. Why *assimilate* is *superfluous* is beyond me. It clearly should be negative given the [Borg](https://en.wikipedia.org/wiki/Borg_%28Star_Trek%29) connotations.


```r
sentiments %>% 
  filter(sentiment=='superfluous')
```

```
# A tibble: 56 x 4
           word   sentiment  lexicon score
          <chr>       <chr>    <chr> <int>
 1        aegis superfluous loughran    NA
 2    amorphous superfluous loughran    NA
 3 anticipatory superfluous loughran    NA
 4 appertaining superfluous loughran    NA
 5   assimilate superfluous loughran    NA
 6 assimilating superfluous loughran    NA
 7 assimilation superfluous loughran    NA
 8   bifurcated superfluous loughran    NA
 9  bifurcation superfluous loughran    NA
10     cessions superfluous loughran    NA
# ... with 46 more rows
```
…
Now we add the sentiments via the <span class="func">inner_join</span> function.  Here I use 'bing', but you can use another, and you might get a different result.


```r
rnj_filtered %>% 
  count(word) %>% 
  arrange(desc(n))
```

```
# A tibble: 3,287 x 2
    word     n
   <chr> <int>
 1  thou   276
 2   thy   165
 3  love   140
 4  thee   139
 5 romeo   110
 6 night    83
 7 death    71
 8  hath    64
 9   sir    58
10   art    55
# ... with 3,277 more rows
```

```r
rnj_sentiment = rnj_filtered %>% 
  inner_join(sentiments)
rnj_sentiment
```

```
# A tibble: 12,670 x 5
   sentenceID     word sentiment lexicon score
        <int>    <chr>     <chr>   <chr> <int>
 1        128 beauties      <NA>   AFINN     3
 2        168 beauties      <NA>   AFINN     3
 3        784 beauties      <NA>   AFINN     3
 4       1286    noted  positive     nrc    NA
 5        764 murderer     anger     nrc    NA
 6        764 murderer   disgust     nrc    NA
 7        764 murderer      fear     nrc    NA
 8        764 murderer  negative     nrc    NA
 9        764 murderer   sadness     nrc    NA
10        764 murderer  negative    bing    NA
# ... with 12,660 more rows
```
…
shakes_trim = shakes_trim %>%
  filter(text != '',                     # empties
         !text %in% titles,              # titles
         !str_detect(text, '^ACT|^SCENE|^Enter|^Exit|^Exeunt|^Sonnet')  # acts etc.
         )

shakes_trim %>% filter(id=='Romeo_and_Juliet') # we'll get prologue later
```

```
# A tibble: 3,992 x 2
                 id                                            text
              <chr>                                           <chr>
 1 Romeo_and_Juliet                                        PROLOGUE
 2 Romeo_and_Juliet          Two households, both alike in dignity,
 3 Romeo_and_Juliet         In fair Verona, where we lay our scene,
 4 Romeo_and_Juliet        From ancient grudge break to new mutiny,
 5 Romeo_and_Juliet    Where civil blood makes civil hands unclean.
 6 Romeo_and_Juliet    From forth the fatal loins of these two foes
 7 Romeo_and_Juliet  A pair of star-cross'd lovers take their life;
 8 Romeo_and_Juliet          Whose misadventured piteous overthrows
 9 Romeo_and_Juliet Do with their death bury their parents' strife.
10 Romeo_and_Juliet The fearful passage of their death-mark'd love,
# ... with 3,982 more rows
```
…
term_counts %>% 
  arrange(desc(n))

library(quanteda)
shakes_dtm = term_counts %>%
  cast_dfm(document=id, term=word, value=n)

## save(shakes_words, term_counts, shakes_dtm, file='data/shakes_words_df.RData')
```

```
# A tibble: 115,980 x 3
# Groups:   id, word [115,980]
                            id  word     n
                         <chr> <chr> <int>
 1                     Sonnets  love   195
 2 The_Two_Gentlemen_of_Verona  love   171
 3            Romeo_and_Juliet  love   150
 4              As_You_Like_It  love   118
 5        Love_s_Labour_s_Lost  love   118
 6   A_Midsummer_Night_s_Dream  love   114
 7                 Richard_III   god   111
 8            Titus_Andronicus  rome   103
 9      Much_Ado_about_Nothing  love    92
10                  Coriolanus  rome    90
# ... with 115,970 more rows
```
…
<br>

We can already begin to see the clusters of documents.  For example, the more historical are the clump in the upper left.  The oddball is [*The Phoenix and the Turtle*](https://en.wikipedia.org/wiki/The_Phoenix_and_the_Turtle), though *Lover's Complaint* and the *Elegy* are also less similar than standard Shakespeare.  The Phoenix and the Turtle is about the death of ideal love, represented by the Phoenix and Turtledove, for which there is a funeral.  It actually is considered by scholars to be in stark constrast to his other output. Elegy itself is actually written for a funeral. [*A Lover's Complaint*](https://en.wikipedia.org/wiki/A_Lover%27s_Complaint) is considered an inferior work by the Bard, so perhaps what we're seeing is a reflection of that lack of quality.  In geneal, we're seeing things that we might expect.

#### Readability

We can examine readablity scores for the texts, but for this we'll need them in raw form. We already had them from before, I just added *Phoenix* from the Gutenberg download.


```r
raw_texts
```

```
# A tibble: 43 x 2
                              id           text
                           <chr>         <list>
 1       A_Lover_s_Complaint.txt    <chr [813]>
 2 A_Midsummer_Night_s_Dream.txt  <chr [6,630]>
 3 All_s_Well_That_Ends_Well.txt <chr [10,993]>
 4      Antony_and_Cleopatra.txt <chr [14,064]>
 5            As_You_Like_It.txt  <chr [9,706]>
 6                Coriolanus.txt <chr [13,440]>
 7                 Cymbeline.txt <chr [11,388]>
 8                     Elegy.txt  <chr [1,316]>
 9                    Hamlet.txt <chr [13,950]>
10                   Henry_V.txt  <chr [9,777]>
# ... with 33 more rows
```
…
